%YAML 1.1
%TAG !u! tag:unity3d.com,2011:
--- !u!74 &7400000
AnimationClip:
  m_ObjectHideFlags: 0
  m_CorrespondingSourceObject: {fileID: 0}
  m_PrefabInstance: {fileID: 0}
  m_PrefabAsset: {fileID: 0}
  m_Name: bird
  serializedVersion: 6
  m_Legacy: 0
  m_Compressed: 0
  m_UseHighQualityCurve: 1
  m_RotationCurves: []
  m_CompressedRotationCurves: []
  m_EulerCurves: []
  m_PositionCurves: []
  m_ScaleCurves: []
  m_FloatCurves: []
  m_PPtrCurves:
  - curve:
    - time: 0
      value: {fileID: 21300000, guid: 87c9ac03676c3e2409d3d55eb0e1ec47, type: 3}
    - time: 0.083333336
      value: {fileID: 21300000, guid: 1654525614be9c747ad69382489e96fb, type: 3}
    - time: 0.16666667
      value: {fileID: 21300000, guid: 8884e523745e516498233c5ffb5f5e58, type: 3}
    - time: 0.25
      value: {fileID: 21300000, guid: 962012770a795914599304a2c50e2595, type: 3}
    - time: 0.33333334
      value: {fileID: 21300000, guid: cb39f89766b933041b8c11a8494328aa, type: 3}
    - time: 0.41666666
      value: {fileID: 21300000, guid: 6603581ecb714e445b5457181586f55f, type: 3}
    - time: 0.5
      value: {fileID: 21300000, guid: 6a47815144082df4ab4e6a8240e220a6, type: 3}
    - time: 0.5833333
      value: {fileID: 21300000, guid: 6b7e1d8f43708c940a593656ef6493e4, type: 3}
    - time: 0.6666667
      value: {fileID: 21300000, guid: 9df7fbbb7cf0607469b2e0f6511fb57e, type: 3}
    - time: 0.75
      value: {fileID: 21300000, guid: 26ecb3f29f1ca0846857b8221b4a63ce, type: 3}
    - time: 0.8333333
      value: {fileID: 21300000, guid: 8e3c97c8159982d458492a4094842983, type: 3}
    - time: 0.9166667
      value: {fileID: 21300000, guid: 2961dabaf3265a249ac3c33711ecb51f, type: 3}
    - time: 1
      value: {fileID: 21300000, guid: b8a6cd6d9d766c242a76563a86d0e1a5, type: 3}
    - time: 1.0833334
      value: {fileID: 21300000, guid: b99ca91f0acae834c9fd19a47e5a52e8, type: 3}
    - time: 1.1666666
      value: {fileID: 21300000, guid: 93d02917bed408b4bbd7a9d3d4f14ef5, type: 3}
    - time: 1.25
      value: {fileID: 21300000, guid: b1082a889cb8147469d2ea8b9b4dae08, type: 3}
    - time: 1.3333334
      value: {fileID: 21300000, guid: 429b961745ae74c4483ef81927889615, type: 3}
    - time: 1.4166666
      value: {fileID: 21300000, guid: 2881776bc9f52b54fa26b2264dc1e403, type: 3}
    - time: 1.5
      value: {fileID: 21300000, guid: e6f1410d9921aba4bae1ff82eb7027c2, type: 3}
    - time: 1.5833334
      value: {fileID: 21300000, guid: ccb11fcb7baaa9347a8d5f43774ba64d, type: 3}
    - time: 1.6666666
      value: {fileID: 21300000, guid: f90d778d22e00924eb2df6d11ab16bb3, type: 3}
    attribute: m_Sprite
    path: 
    classID: 212
    script: {fileID: 0}
  m_SampleRate: 12
  m_WrapMode: 0
  m_Bounds:
    m_Center: {x: 0, y: 0, z: 0}
    m_Extent: {x: 0, y: 0, z: 0}
  m_ClipBindingConstant:
    genericBindings:
    - serializedVersion: 2
      path: 0
      attribute: 0
      script: {fileID: 0}
      typeID: 212
      customType: 23
      isPPtrCurve: 1
    pptrCurveMapping:
    - {fileID: 21300000, guid: 87c9ac03676c3e2409d3d55eb0e1ec47, type: 3}
    - {fileID: 21300000, guid: 1654525614be9c747ad69382489e96fb, type: 3}
    - {fileID: 21300000, guid: 8884e523745e516498233c5ffb5f5e58, type: 3}
    - {fileID: 21300000, guid: 962012770a795914599304a2c50e2595, type: 3}
    - {fileID: 21300000, guid: cb39f89766b933041b8c11a8494328aa, type: 3}
    - {fileID: 21300000, guid: 6603581ecb714e445b5457181586f55f, type: 3}
    - {fileID: 21300000, guid: 6a47815144082df4ab4e6a8240e220a6, type: 3}
    - {fileID: 21300000, guid: 6b7e1d8f43708c940a593656ef6493e4, type: 3}
    - {fileID: 21300000, guid: 9df7fbbb7cf0607469b2e0f6511fb57e, type: 3}
    - {fileID: 21300000, guid: 26ecb3f29f1ca0846857b8221b4a63ce, type: 3}
    - {fileID: 21300000, guid: 8e3c97c8159982d458492a4094842983, type: 3}
    - {fileID: 21300000, guid: 2961dabaf3265a249ac3c33711ecb51f, type: 3}
    - {fileID: 21300000, guid: b8a6cd6d9d766c242a76563a86d0e1a5, type: 3}
    - {fileID: 21300000, guid: b99ca91f0acae834c9fd19a47e5a52e8, type: 3}
    - {fileID: 21300000, guid: 93d02917bed408b4bbd7a9d3d4f14ef5, type: 3}
    - {fileID: 21300000, guid: b1082a889cb8147469d2ea8b9b4dae08, type: 3}
    - {fileID: 21300000, guid: 429b961745ae74c4483ef81927889615, type: 3}
    - {fileID: 21300000, guid: 2881776bc9f52b54fa26b2264dc1e403, type: 3}
    - {fileID: 21300000, guid: e6f1410d9921aba4bae1ff82eb7027c2, type: 3}
    - {fileID: 21300000, guid: ccb11fcb7baaa9347a8d5f43774ba64d, type: 3}
    - {fileID: 21300000, guid: f90d778d22e00924eb2df6d11ab16bb3, type: 3}
  m_AnimationClipSettings:
    serializedVersion: 2
    m_AdditiveReferencePoseClip: {fileID: 0}
    m_AdditiveReferencePoseTime: 0
    m_StartTime: 0
    m_StopTime: 1.75
    m_OrientationOffsetY: 0
    m_Level: 0
    m_CycleOffset: 0
    m_HasAdditiveReferencePose: 0
    m_LoopTime: 1
    m_LoopBlend: 0
    m_LoopBlendOrientation: 0
    m_LoopBlendPositionY: 0
    m_LoopBlendPositionXZ: 0
    m_KeepOriginalOrientation: 0
    m_KeepOriginalPositionY: 1
    m_KeepOriginalPositionXZ: 0
    m_HeightFromFeet: 0
    m_Mirror: 0
  m_EditorCurves: []
  m_EulerEditorCurves: []
  m_HasGenericRootTransform: 0
  m_HasMotionFloatCurves: 0
  m_Events: []
